<?xml version="1.0" encoding="UTF-8"?>
<!DOCTYPE svg PUBLIC "-//W3C//DTD SVG 1.1//EN" "http://www.w3.org/Graphics/SVG/1.1/DTD/svg11.dtd">
<!-- Creator: CorelDRAW 2018 (64-Bit) -->
<svg xmlns="http://www.w3.org/2000/svg" xml:space="preserve" width="0.381756in" height="0.381756in" version="1.1" style="shape-rendering:geometricPrecision; text-rendering:geometricPrecision; image-rendering:optimizeQuality; fill-rule:evenodd; clip-rule:evenodd"
viewBox="0 0 1.16 1.16"
 xmlns:xlink="http://www.w3.org/1999/xlink">
 <defs>
  <style type="text/css">
   <![CDATA[
    .fil0 {fill:gray}
   ]]>
  </style>
 </defs>
 <g id="Layer_x0020_1">
  <metadata id="CorelCorpID_0Corel-Layer"/>
  <g id="_2240741053040">
   <path class="fil0" d="M1.16 0.78c0,-0.14 -0.08,-0.27 -0.21,-0.33 -0,0.28 -0.23,0.5 -0.5,0.5 0.06,0.12 0.19,0.21 0.33,0.21 0.07,0 0.13,-0.02 0.19,-0.05l0.18 0.05 -0.05 -0.18c0.03,-0.06 0.05,-0.12 0.05,-0.19l0 -0zm0 0z"/>
   <path class="fil0" d="M0.88 0.44c0,-0.24 -0.2,-0.44 -0.44,-0.44 -0.24,0 -0.44,0.2 -0.44,0.44 0,0.08 0.02,0.16 0.06,0.22l-0.06 0.22 0.22 -0.06c0.07,0.04 0.15,0.06 0.22,0.06 0.24,0 0.44,-0.2 0.44,-0.44l0 0zm-0.51 -0.1l-0.07 0c0,-0.07 0.06,-0.14 0.14,-0.14 0.07,0 0.14,0.06 0.14,0.14 0,0.04 -0.02,0.07 -0.04,0.1l-0.06 0.05 0 0.05 -0.07 0 0 -0.08 0.08 -0.07c0.01,-0.01 0.02,-0.03 0.02,-0.05 0,-0.04 -0.03,-0.07 -0.07,-0.07 -0.04,0 -0.07,0.03 -0.07,0.07l0 0zm0.03 0.27l0.07 0 0 0.07 -0.07 0 0 -0.07zm0 0z"/>
  </g>
 </g>
</svg>
