<?xml version="1.0" encoding="utf-8"?>
<!-- Generator: Adobe Illustrator 21.0.0, SVG Export Plug-In . SVG Version: 6.00 Build 0)  -->
<svg version="1.1" id="Layer_1" xmlns="http://www.w3.org/2000/svg" xmlns:xlink="http://www.w3.org/1999/xlink" x="0px" y="0px"
	 viewBox="0 0 32.4 36.7" style="enable-background:new 0 0 32.4 36.7;" xml:space="preserve">
<g>
	<polygon points="27.3,33.4 1,33.4 1,7.1 4.2,7.1 4.2,8.6 2.5,8.6 2.5,31.9 25.8,31.9 25.8,30.3 27.3,30.3 	"/>
	<path d="M31.4,29.1H5.6V3.3h25.8V29.1z M7.1,27.6h22.8V4.8H7.1V27.6z"/>
	<rect x="10.6" y="8.3" width="2.1" height="2.1"/>
	<rect x="17.4" y="8.3" width="2.1" height="2.1"/>
	<rect x="24.3" y="8.3" width="2.1" height="2.1"/>
	<rect x="10.6" y="15.1" width="2.1" height="2.1"/>
	<rect x="17.4" y="15.1" width="2.1" height="2.1"/>
	<rect x="24.3" y="15.1" width="2.1" height="2.1"/>
	<rect x="10.6" y="22" width="2.1" height="2.1"/>
	<rect x="17.4" y="22" width="2.1" height="2.1"/>
	<rect x="24.3" y="22" width="2.1" height="2.1"/>
</g>
</svg>
