<?xml version="1.0" encoding="utf-8"?>
<!-- Generator: Adobe Illustrator 21.0.0, SVG Export Plug-In . SVG Version: 6.00 Build 0)  -->
<svg version="1.1" xmlns="http://www.w3.org/2000/svg" xmlns:xlink="http://www.w3.org/1999/xlink" x="0px" y="0px"
	 viewBox="0 0 500 500" style="enable-background:new 0 0 500 500;" xml:space="preserve">
<style type="text/css">
	.st0{fill:#4372CD;}
	.st1{fill:#FFFFFF;}
	.st2{display:none;}
	.st3{display:inline;fill:none;stroke:#4BFF2A;stroke-width:2;stroke-miterlimit:10;}
	.st4{display:inline;}
	.st5{fill:none;stroke:#4BFF2A;stroke-miterlimit:10;}
	.st6{fill:none;stroke:#4BFF2A;stroke-linecap:round;stroke-miterlimit:10;}
</style>
<g id="Layer_1">
	<path id="home" class="st1" d="M453.3,457.7H343.9v-88.2c0-21.6-7.2-41.8-20.3-56.8c-12.7-14.5-28.3-21.9-46.5-21.9
		s-33.8,7.4-46.5,21.9c-13.1,15-20.3,35.2-20.3,56.8v88.2H101.1c-22.5,0-40.8-18.3-40.8-40.8V225.8c0-19.3,9.2-37.8,24.5-49.5
		L248.6,51.9c16.8-12.8,40.3-12.8,57.1,0l163.8,124.5c15.4,11.7,24.5,30.2,24.5,49.5v191.1C494.1,439.4,475.8,457.7,453.3,457.7z
		 M360.6,441h92.7c13.3,0,24.1-10.8,24.1-24.1V225.8c0-14.1-6.7-27.6-17.9-36.2L295.7,65.2c-10.9-8.3-26.1-8.3-37,0L95,189.6
		C83.7,198.2,77,211.7,77,225.8v191.1c0,13.3,10.8,24.1,24.1,24.1h92.7v-71.5c0-25.7,8.7-49.7,24.4-67.8c16-18.3,35.8-27.6,59-27.6
		s43.1,9.3,59,27.6c15.7,18,24.4,42.1,24.4,67.8V441z"/>
</g>
<g id="Layer_2" class="st2">
</g>
</svg>
