<?xml version="1.0" encoding="UTF-8"?>
<!DOCTYPE svg PUBLIC "-//W3C//DTD SVG 1.1//EN" "http://www.w3.org/Graphics/SVG/1.1/DTD/svg11.dtd">
<!-- Creator: CorelDRAW 2018 (64-Bit) -->
<?xml-stylesheet href="db-reward-icon.css" type="text/css"?>
<svg xmlns="http://www.w3.org/2000/svg" xml:space="preserve" width="0.449906in" height="0.509622in" version="1.1" style="shape-rendering:geometricPrecision; text-rendering:geometricPrecision; image-rendering:optimizeQuality; fill-rule:evenodd; clip-rule:evenodd"
viewBox="0 0 8.94 10.12"
 xmlns:xlink="http://www.w3.org/1999/xlink">
 <g id="Layer_x0020_1">
  <metadata id="CorelCorpID_0Corel-Layer"/>
  <g id="_2293725624096">
   <path class="fil0" d="M5.38 7.08c0.32,-0.03 1,-0.39 1.28,-0.62l0.34 -0.29c0.22,0.33 0.75,1.33 1.01,1.76 0.06,0.1 0.1,0.19 0.17,0.29 0.04,0.07 0.15,0.24 0.17,0.31 -0.14,0 -0.32,-0.04 -0.46,-0.06 -0.58,-0.06 -0.41,-0.02 -0.66,-0.41 -0.1,-0.16 -0.12,-0.27 -0.3,-0.27 -0.13,0 -0.18,0.1 -0.18,0.22 0,0.12 0.34,0.52 0.34,0.61 0,0.02 -0.3,0.77 -0.34,0.83 -0.05,-0.04 -0.14,-0.21 -0.18,-0.28l-1.11 -1.93c-0.03,-0.06 -0.06,-0.1 -0.07,-0.16zm-3.18 2.37c-0.03,-0.06 -0.34,-0.81 -0.34,-0.83 0,-0.1 0.34,-0.49 0.34,-0.61 0,-0.15 -0.06,-0.22 -0.22,-0.22 -0.14,0 -0.2,0.17 -0.26,0.26 -0.05,0.07 -0.15,0.27 -0.21,0.33 -0.06,0.06 -0.35,0.07 -0.45,0.09 -0.13,0.02 -0.34,0.06 -0.48,0.06l1.34 -2.35 0.34 0.29c0.28,0.23 0.96,0.59 1.28,0.62 -0.01,0.09 -0.28,0.52 -0.33,0.6l-0.34 0.59c-0.06,0.1 -0.11,0.19 -0.17,0.29 -0.08,0.13 -0.47,0.85 -0.53,0.89zm2.27 -2.65c-0.42,0 -0.94,-0.12 -1.31,-0.29 -0.61,-0.28 -1.14,-0.73 -1.46,-1.33 -0.41,-0.73 -0.52,-1.46 -0.34,-2.3 0.04,-0.18 0.18,-0.59 0.27,-0.74 0.3,-0.52 0.49,-0.79 1.02,-1.17 0.3,-0.22 0.75,-0.41 1.11,-0.49 0.52,-0.12 0.9,-0.12 1.43,-0.01 0.77,0.16 1.45,0.65 1.91,1.29 0.06,0.08 0.11,0.16 0.15,0.24 0.03,0.05 0.04,0.08 0.07,0.13l0.07 0.15c0.09,0.19 0.15,0.36 0.2,0.59 0.11,0.51 0.12,0.91 0,1.42 -0.06,0.24 -0.11,0.4 -0.2,0.61 -0.08,0.17 -0.18,0.35 -0.28,0.51 -0.27,0.38 -0.64,0.73 -1.04,0.96l-0.28 0.14c-0.18,0.08 -0.37,0.16 -0.59,0.2 -0.19,0.04 -0.53,0.09 -0.72,0.09zm-3.6 -3.36c0,0.62 0.03,0.93 0.25,1.49 0.09,0.23 0.23,0.5 0.37,0.7 0.22,0.3 0.19,0.15 -0.05,0.58l-1.25 2.17c-0.08,0.14 -0.2,0.27 -0.2,0.42 0,0.29 0.42,0.17 0.66,0.13l0.84 -0.11 0.42 1.04c0.08,0.21 0.1,0.26 0.29,0.26 0.12,0 0.38,-0.53 0.48,-0.69 0.36,-0.59 0.73,-1.29 1.09,-1.88 0.07,-0.12 0.14,-0.26 0.22,-0.37 0.13,0 0.17,0.02 0.3,0.02l0.36 0c0.13,0 0.17,-0.02 0.3,-0.02l1.3 2.24c0.05,0.09 0.36,0.71 0.48,0.71 0.18,0 0.21,-0.05 0.29,-0.25l0.43 -1.06 1.24 0.17c0.16,0.02 0.26,-0.05 0.26,-0.22 0,-0.07 -0.14,-0.29 -0.19,-0.37l-1.05 -1.82c-0.05,-0.09 -0.38,-0.64 -0.41,-0.74 0.25,-0.37 0.32,-0.4 0.52,-0.9 0.48,-1.2 0.26,-2.69 -0.59,-3.65 -0.04,-0.05 -0.05,-0.07 -0.1,-0.12 -0.32,-0.33 -0.67,-0.62 -1.12,-0.82 -0.64,-0.29 -0.95,-0.34 -1.7,-0.34 -0.48,0 -1.05,0.18 -1.38,0.34 -0.82,0.41 -1.3,0.9 -1.72,1.72 -0.17,0.33 -0.34,0.9 -0.34,1.38z"/>
   <path class="fil0" d="M3.52 3.38c0.1,-0 0.24,-0.03 0.35,-0.05 0.12,-0.02 0.25,-0.02 0.31,-0.08 0.04,-0.04 0.25,-0.47 0.27,-0.54l0.04 0c0.01,0.06 0.22,0.48 0.26,0.53 0.07,0.08 0.55,0.14 0.67,0.14 -0.06,0.09 -0.45,0.43 -0.45,0.49l0.1 0.63c-0.69,-0.36 -0.5,-0.36 -1.19,0 0.02,-0.09 0.04,-0.21 0.05,-0.3 0.02,-0.1 0.05,-0.21 0.05,-0.31 0,-0.11 -0.38,-0.4 -0.45,-0.51zm0.38 -0.45c-0.08,0 -0.89,0.07 -0.98,0.19 -0.13,0.16 0.01,0.26 0.09,0.34l0.53 0.54c0.01,0.05 -0.08,0.49 -0.1,0.6 -0.02,0.14 -0.14,0.49 0.17,0.49 0.11,0 0.78,-0.42 0.85,-0.42 0.1,0 0.71,0.42 0.87,0.42 0.28,0 0.17,-0.37 0.15,-0.47 -0.13,-0.76 -0.21,-0.52 0.25,-0.97 0.08,-0.08 0.33,-0.29 0.33,-0.4 0,-0.23 -0.29,-0.22 -0.43,-0.24 -0.17,-0.02 -0.41,-0.08 -0.6,-0.08 -0.08,-0.16 -0.16,-0.32 -0.24,-0.49 -0.07,-0.15 -0.15,-0.41 -0.33,-0.41 -0.17,-0 -0.23,0.21 -0.32,0.4 -0.09,0.17 -0.16,0.34 -0.25,0.5z"/>
   <path class="fil0" d="M3.1 1.52c0,0.16 0.14,0.23 0.25,0.21 0.09,-0.02 0.22,-0.11 0.33,-0.15 0.72,-0.26 1.39,-0.19 2.02,0.24 0.16,0.11 0.14,0.11 0.23,0.18 0.1,0.08 0.05,0.02 0.13,0.13 0.2,0.25 0.19,0.19 0.39,0.58 0.26,0.52 0.24,1.15 0.04,1.68 -0.03,0.07 -0.08,0.15 -0.08,0.23 0,0.14 0.25,0.35 0.41,0.03 0.35,-0.71 0.28,-1.69 -0.12,-2.36l-0.25 -0.36c-0.11,-0.12 -0.11,-0.14 -0.22,-0.23 -0.18,-0.14 -0.15,-0.15 -0.44,-0.33 -0.6,-0.37 -1.48,-0.46 -2.16,-0.21 -0.15,0.05 -0.51,0.18 -0.51,0.36z"/>
   <path class="fil0" d="M1.9 3.46c0,0.57 0.07,0.96 0.34,1.42 0.13,0.22 0.25,0.35 0.4,0.53l0.33 0.28c0.06,0.04 0.11,0.08 0.18,0.12 0.69,0.45 1.71,0.47 2.45,0.1 0.12,-0.06 0.22,-0.08 0.22,-0.24 0,-0.12 -0.09,-0.2 -0.22,-0.2 -0.05,0 -0.33,0.14 -0.51,0.2 -0.35,0.11 -0.72,0.13 -1.09,0.04 -0.3,-0.07 -0.51,-0.17 -0.76,-0.33 -0.16,-0.11 -0.14,-0.11 -0.23,-0.18 -0.03,-0.03 -0.05,-0.03 -0.08,-0.06 -0.27,-0.27 -0.48,-0.67 -0.57,-1.05 -0.2,-0.81 0.15,-1.34 0.15,-1.48 0,-0.18 -0.27,-0.31 -0.4,-0.06 -0.11,0.22 -0.22,0.65 -0.22,0.91z"/>
   <path class="fil0" d="M2.53 1.98c0,0.27 0.4,0.3 0.4,-0.02 0,-0.24 -0.4,-0.24 -0.4,0.02z"/>
   <path class="fil0" d="M5.97 5.24c0,0.26 0.24,0.24 0.33,0.17 0.14,-0.12 0.04,-0.37 -0.13,-0.37 -0.09,0 -0.2,0.1 -0.2,0.2z"/>
  </g>
 </g>
</svg>
