<?xml version="1.0" encoding="utf-8"?>
<!-- Generator: Adobe Illustrator 21.0.0, SVG Export Plug-In . SVG Version: 6.00 Build 0)  -->
<svg version="1.1" id="Layer_1" xmlns="http://www.w3.org/2000/svg" xmlns:xlink="http://www.w3.org/1999/xlink" x="0px" y="0px"
	 viewBox="0 0 500 500" style="enable-background:new 0 0 500 500;" xml:space="preserve">
<style type="text/css">
	.st0{fill:#4F81D0;}
</style>
<g>
	<circle class="st0" cx="250" cy="188.2" r="106.7"/>
	<path class="st0" d="M453.2,208.1c0-36-22.7-66.8-54.6-78.8C379.2,66.6,320.6,21,251.5,21c-66.8,0-123.7,42.5-145,102
		c-34.5,10.5-59.6,42.5-59.6,80.5c0,46.5,37.7,84.1,84.1,84.1V124.9c28.2-34.4,71.1-56.3,119-56.3c48,0,90.8,21.9,119,56.3v153.7
		c-9.9,10.7-41.4,39.6-94,39.8c-1.6-5.2-6.5-9-12.2-9h-27.3c-7.1,0-12.8,5.8-12.8,12.8v9.4c0,7.1,5.8,12.8,12.8,12.8h27.3
		c4.9,0,9.2-2.8,11.4-6.9c14-0.6,70.8-5.4,108.7-46.5C422.8,284.5,453.2,249.9,453.2,208.1z"/>
	<path class="st0" d="M76.8,479c0,0,11.8-145.2,76.4-167.2c6.6-2.2,13.7,1,16.5,7.4c6.6,14.9,23.5,41.4,61.9,45.1
		c50.8,4.8,76.8-13,90.5-31.3c1.5-2,3.5-3.6,5.9-4.5c5.4-2.1,15.8-6.4,22.9-10.1c4.8-2.5,10.7-1.9,14.8,1.7
		c16.5,14.1,52.5,56.5,54,159"/>
</g>
</svg>
