<svg xmlns="http://www.w3.org/2000/svg" width="33.943" height="33.459" viewBox="0 0 33.943 33.459">
  <defs>
    <style>
      .cls-1 {
        fill: #fff;
        fill-rule: evenodd;
      }
    </style>
  </defs>
  <path id="Path_2744" data-name="Path 2744" class="cls-1" d="M21.361,12.654a4.076,4.076,0,1,0,4.076,4.076,4.076,4.076,0,0,0-4.076-4.076ZM20.084,7.787V2.494A2.394,2.394,0,0,0,17.773,0H2.321A2.394,2.394,0,0,0,.01,2.494v28.47a2.394,2.394,0,0,0,2.311,2.494H17.773a2.394,2.394,0,0,0,2.311-2.494V25.671H17.226v2.494H2.869V5.171H17.286V7.726h2.8ZM7.249,30.234h5.6a.913.913,0,0,1,0,1.826h-5.6a.936.936,0,0,1-.913-.913A.9.9,0,0,1,7.249,30.234ZM13.392,1.886H6.762a.261.261,0,0,1-.243-.243A.261.261,0,0,1,6.762,1.4h6.63a.261.261,0,0,1,.243.243A.261.261,0,0,1,13.392,1.886ZM32.8,9.734H9.925A1.094,1.094,0,0,0,8.77,10.768V22.691a1.1,1.1,0,0,0,1.156,1.034H32.8a1.094,1.094,0,0,0,1.156-1.034V10.768A1.137,1.137,0,0,0,32.8,9.734Zm-22.2,10.22v-5.9a2.445,2.445,0,0,0,2.616-2.677H29.452a2.452,2.452,0,0,0,2.616,2.616v5.9a2.316,2.316,0,0,0-2.494,2.19h-16.3a2.4,2.4,0,0,0-2.677-2.129Zm19.04-3.224A1.338,1.338,0,1,0,28.3,18.068,1.338,1.338,0,0,0,29.634,16.73Zm-13.87,0a1.338,1.338,0,1,0-1.338,1.338A1.338,1.338,0,0,0,15.764,16.73Zm7.361,1.825a1.32,1.32,0,0,1-.426.547,2.276,2.276,0,0,1-.669.3,2.7,2.7,0,0,0-.3.061v.487h-.608v-.426a.9.9,0,0,1-.426-.061,1.434,1.434,0,0,1-.487-.121c-.121-.061-.243-.061-.365-.121-.061-.061-.182-.061-.182-.121-.061-.061-.061-.121-.121-.182a2.145,2.145,0,0,1-.061-.365v-.243a.223.223,0,0,1,.061-.182.059.059,0,0,1,.061-.061h.061a.223.223,0,0,1,.182.061,1.316,1.316,0,0,0,.3.182,2.931,2.931,0,0,0,.426.182,1.687,1.687,0,0,0,.547.061.776.776,0,0,0,.365-.061.315.315,0,0,0,.243-.121l.182-.182a.365.365,0,0,0,.061-.243c0-.121-.061-.182-.121-.3a1.316,1.316,0,0,0-.3-.182l-.365-.182c-.121-.061-.3-.121-.426-.182a1.526,1.526,0,0,1-.426-.243,1.615,1.615,0,0,1-.365-.3,2.6,2.6,0,0,1-.3-.426,1.8,1.8,0,0,1-.121-.608,2.189,2.189,0,0,1,.121-.669,1.63,1.63,0,0,1,.426-.487,1.726,1.726,0,0,1,.669-.3.772.772,0,0,1,.365-.061v-.487h.608v.426h.3c.121,0,.3.061.426.061.121.061.243.061.3.121s.121.061.182.121A.059.059,0,0,1,23,14.3a.188.188,0,0,0,.061.121v.729c0,.061,0,.061-.061.061h-.061c-.061,0-.061,0-.182-.061-.061-.061-.182-.061-.243-.121s-.243-.061-.365-.121h-.608a.459.459,0,0,0-.3.061.315.315,0,0,0-.243.121c-.061.061-.121.121-.121.182s-.061.121-.061.182a.469.469,0,0,0,.121.3,1.316,1.316,0,0,0,.3.182l.365.182c.121.061.3.121.426.182a1.526,1.526,0,0,1,.426.243.89.89,0,0,1,.365.3,2.6,2.6,0,0,1,.3.426,1.8,1.8,0,0,1,.121.608,1.2,1.2,0,0,1-.121.669Z" transform="translate(-0.01)"/>
</svg>
