<svg xmlns="http://www.w3.org/2000/svg" width="37.421" height="34.323" viewBox="0 0 37.421 34.323">
  <defs>
    <style>
      .cls-1 {
        fill: #fff;
        fill-rule: evenodd;
      }
    </style>
  </defs>
  <path id="Path_2743" data-name="Path 2743" class="cls-1" d="M36.627,18.7a.788.788,0,0,0,.781-.781v-3.9a3.121,3.121,0,0,0-3.124-3.124H28.415a3.988,3.988,0,0,1-.379-1.562,3.887,3.887,0,0,1,2.035-3.408.7.7,0,0,0,.379-.473.85.85,0,0,0-.071-.592L28.486,1.544A3.056,3.056,0,0,0,26.593.1,3.107,3.107,0,0,0,24.25.408L1.533,13.636A3.144,3.144,0,0,0,.4,17.9l1.964,3.431a.837.837,0,0,0,.473.379.731.731,0,0,0,.592-.095,3.829,3.829,0,0,1,5.679,2.177,3.9,3.9,0,0,1-3.692,2.721.788.788,0,0,0-.781.781v3.9a3.121,3.121,0,0,0,3.124,3.124h26.48a3.121,3.121,0,0,0,3.124-3.124v-3.9a.788.788,0,0,0-.781-.781,3.9,3.9,0,0,1,0-7.809Zm-9.347,4.685c-1.3,0-2.343,1.373-2.343,3.124s1.018,3.124,2.343,3.124c1.3,0,2.343-1.373,2.343-3.124S28.6,23.386,27.279,23.386Zm0,4.685c-.308,0-.781-.615-.781-1.562s.45-1.562.781-1.562c.308,0,.781.615.781,1.562S27.611,28.071,27.279,28.071Zm-6.224-6.224c1.3,0,2.343-1.373,2.343-3.124S22.381,15.6,21.056,15.6c-1.3,0-2.343,1.373-2.343,3.124S19.731,21.848,21.056,21.848Zm0-4.685c.308,0,.781.615.781,1.562s-.45,1.562-.781,1.562c-.308,0-.781-.615-.781-1.562S20.724,17.162,21.056,17.162Zm8.259-1.4a.769.769,0,0,0-1.089.166L18.879,28.4a.766.766,0,0,0,.166,1.089.881.881,0,0,0,.473.166.785.785,0,0,0,.615-.308L29.48,16.878a.766.766,0,0,0-.166-1.089ZM14.832,24.38a.788.788,0,0,0-.781.781v1.562a.781.781,0,1,0,1.562,0V25.161A.788.788,0,0,0,14.832,24.38Zm0-6.224a.788.788,0,0,0-.781.781V20.5a.781.781,0,1,0,1.562,0V18.937A.788.788,0,0,0,14.832,18.156ZM25.079,1.8a1.528,1.528,0,0,1,1.16-.166,1.546,1.546,0,0,1,.947.734l1.538,2.674a5.391,5.391,0,0,0-2.177,4.331,5.951,5.951,0,0,0,.237,1.562H9.413L25.1,1.8ZM5.485,19.5a5.289,5.289,0,0,0-2.082.426L1.817,17.138a1.575,1.575,0,0,1,.568-2.13l2.39-1.4a2.608,2.608,0,0,0-.047.426v3.9a.788.788,0,0,0,.781.781,3.888,3.888,0,0,1,3.36,1.94,5.4,5.4,0,0,0-3.36-1.16Zm25.7,3.124a5.457,5.457,0,0,0,4.685,5.4v3.171a1.576,1.576,0,0,1-1.562,1.562H15.613V31.384a.781.781,0,1,0-1.562,0v1.373H7.827a1.576,1.576,0,0,1-1.562-1.562V28.024a5.449,5.449,0,0,0,0-10.791V14.062A1.576,1.576,0,0,1,7.827,12.5h6.224v1.751a.781.781,0,1,0,1.562,0V12.5H34.308a1.576,1.576,0,0,1,1.562,1.562v3.171A5.457,5.457,0,0,0,31.184,22.628Z" transform="translate(0.013 0.004)"/>
</svg>
