<svg xmlns="http://www.w3.org/2000/svg" width="29.813" height="14.957" viewBox="0 0 29.813 14.957">
  <defs>
    <style>
      .cls-1 {
        fill: #989898;
        fill-rule: evenodd;
      }
    </style>
  </defs>
  <g id="Layer_x0020_1" transform="translate(0.01 0.02)">
    <path id="Path_2784" data-name="Path 2784" class="cls-1" d="M16.369,2.873h5.852a4.6,4.6,0,1,1,0,9.2H16.369v2.861h5.983a7.723,7.723,0,0,0,3.04-.654,7.65,7.65,0,0,0,4.185-5.067,7.564,7.564,0,0,0,.131-.768,4.328,4.328,0,0,0,.016-1.716c-.016-.262-.082-.572-.114-.785a7.517,7.517,0,0,0-7.127-5.9h-6.13V2.906ZM8.915,6.142V8.791c0,.163.049.212.212.212H20.684c.163,0,.212-.049.212-.212V6.142c0-.163-.049-.212-.212-.212H9.127C8.964,5.93,8.915,5.979,8.915,6.142ZM.006,7.467a9.541,9.541,0,0,0,.2,1.6,5.476,5.476,0,0,0,.474,1.406A6.931,6.931,0,0,0,2.213,12.7,7.243,7.243,0,0,0,7.444,14.9h5.983V12.043H7.575a4.58,4.58,0,0,1-4.659-4.25A4.307,4.307,0,0,1,4.354,4.083a4.539,4.539,0,0,1,3.22-1.242h5.852V-.02H7.3A7.529,7.529,0,0,0-.01,7.434Z"/>
  </g>
</svg>
